{
    "success": true,
    "message_code": "PSI00001",
    "message": "Read data success",
    "total": 8,
    "datas": [{
            "id": 1,
            "category_code": "c001",
            "category_name": "คลังสินค้าหลัก",
            "parent_category_code": "p001",
            "status": true
        },
        {
            "id": 2,
            "category_code": "c002",
            "category_name": "คลังสินค้าหลัก 1",
            "parent_category_code": "p001",
            "status": false
        },
        {
            "id": 3,
            "category_code": "c003",
            "category_name": "คลังสินค้าหลัก 2",
            "parent_category_code": "p002",
            "status": false
        },
        {
            "id": 4,
            "category_code": "c004",
            "category_name": "คลังสินค้าหลัก 3",
            "parent_category_code": "p003",
            "status": false
        },
        {
            "id": 5,
            "category_code": "c005",
            "category_name": "คลังสินค้าหลัก 4",
            "parent_category_code": "p004",
            "status": false
        },
        {
            "id": 6,
            "category_code": "c006",
            "category_name": "คลังสินค้าหลัก 5",
            "parent_category_code": "p005",
            "status": false
        },
        {
            "id": 7,
            "category_code": "c007",
            "category_name": "คลังสินค้าหลัก 6",
            "parent_category_code": "p006",
            "status": false
        },
        {
            "id": 8,
            "category_code": "c008",
            "category_name": "คลังสินค้าหลัก 7",
            "parent_category_code": "p007",
            "status": false
        }
    ]
}