{
    "datas": [{
        "attribute_set": [{
                "attribute_set_id": "1",
                "attribute_set_name": "Shirt",
                "attribute": [{
                        "attribute_code": "AT001",
                        "attribute_name": "Color",
                        "attribute_value": ["GREEN", "RED"]
                    },
                    {
                        "attribute_code": "AT002",
                        "attribute_name": "Size",
                        "attribute_value": ["S", "M", "L"]
                    }
                ]
            },
            {
                "attribute_set_id": "2",
                "attribute_set_name": "Shirt 2",
                "attribute": [{
                    "attribute_code": "AT002",
                    "attribute_name": "Size",
                    "attribute_value": ["S", "L"]
                }]
            }
        ]
    }]
}