{
    "datas" :[
        {
            "category_code": "c001",
            "category_name": "ประเภทสินค้า"
        },
        {
            "category_code": "c002",
            "category_name": "ประเภทสินค้า 1"
        },
        {
            "category_code": "c003",
            "category_name": "ประเภทสินค้า 2"
        }
    ]
}